[api-updater (non-obsolete-error-filter)] 2/3/2022 8:42:02 PM : Starting D:/Programs/Unity/2020.3.27f1/Editor/Data/Tools/ScriptUpdater/APIUpdater.NonObsoleteApiUpdaterDetector.exe
[api-updater (non-obsolete-error-filter)] Exception caught while loading types from D:\Personal\Projects\Unity\Project1A\Library\ScriptAssemblies\Unity.CollabProxy.Editor.dll (some types may not be loaded)
	Exception of type 'System.Reflection.ReflectionTypeLoadException' was thrown.
	  at (wrapper managed-to-native) System.Reflection.Assembly.GetTypes(System.Reflection.Assembly,bool)
  at System.Reflection.Assembly.GetTypes () [0x00000] in <695d1cc93cca45069c528c15c9fdd749>:0 
  at APIUpdater.NonObsoleteApiUpdaterDetector.ExtraInfoParser+<LoadTypesWithMovedFromAttributeAsync>d__3.MoveNext () [0x000c8] in <68bff7873e0e4aa69a14dfc30bebbe3e>:0 
	Could not load file or assembly 'UnityEditor.CoreModule, Version=0.0.0.0, Culture=neutral, PublicKeyToken=null' or one of its dependencies.

[api-updater (non-obsolete-error-filter)] Exception caught while loading types from D:\Personal\Projects\Unity\Project1A\Library\ScriptAssemblies\Unity.TextMeshPro.Editor.dll (some types may not be loaded)
	Exception of type 'System.Reflection.ReflectionTypeLoadException' was thrown.
	  at (wrapper managed-to-native) System.Reflection.Assembly.GetTypes(System.Reflection.Assembly,bool)
  at System.Reflection.Assembly.GetTypes () [0x00000] in <695d1cc93cca45069c528c15c9fdd749>:0 
  at APIUpdater.NonObsoleteApiUpdaterDetector.ExtraInfoParser+<LoadTypesWithMovedFromAttributeAsync>d__3.MoveNext () [0x000c8] in <68bff7873e0e4aa69a14dfc30bebbe3e>:0 
	Could not load file or assembly 'UnityEditor.CoreModule, Version=0.0.0.0, Culture=neutral, PublicKeyToken=null' or one of its dependencies.

[api-updater (non-obsolete-error-filter)] 
----------------------------------
jit/startup time      : 444.6769ms
moved types parse time: 33ms
candidates parse time : 0ms
C# parse time         : 306ms
candidates check time : 15ms
console write time    : 0ms

[api-updater (non-obsolete-error-filter)] 2/3/2022 8:43:50 PM : Starting D:/Programs/Unity/2020.3.27f1/Editor/Data/Tools/ScriptUpdater/APIUpdater.NonObsoleteApiUpdaterDetector.exe
[api-updater (non-obsolete-error-filter)] 
----------------------------------
jit/startup time      : 50.9769ms
moved types parse time: 32ms
candidates parse time : 0ms
C# parse time         : 98ms
candidates check time : 14ms
console write time    : 0ms

[api-updater (non-obsolete-error-filter)] 2/4/2022 9:27:00 PM : Starting D:/Programs/Unity/2020.3.27f1/Editor/Data/Tools/ScriptUpdater/APIUpdater.NonObsoleteApiUpdaterDetector.exe
[api-updater (non-obsolete-error-filter)] 
----------------------------------
jit/startup time      : 539.1111ms
moved types parse time: 36ms
candidates parse time : 0ms
C# parse time         : 395ms
candidates check time : 21ms
console write time    : 0ms

